[
    {
        "_id": 1,
        "datePlaced": "2018-10-30",
        "dateShipped": "2018-11-01",
        "email": "johndoe@gmail.com",
        "paymentType": "cash",
        "amountDue": 49.99,
        "paid": true
    },

    {
        "_id": 2,
        "datePlaced": "2018-11-05",
        "dateShipped": "2018-11-07",
        "email": "janedoe@gmail.com",
        "paymentType": "check",
        "amountDue": 14.99,
        "paid": true
    },

    {
        "_id": 3,
        "datePlaced": "2018-11-12",
        "dateShipped": "2018-11-13",
        "email": "marksmith@gmail.com",
        "paymentType": "card",
        "amountDue": 69.99,
        "paid": true
    },
    
    {
        "_id": 4,
        "datePlaced": "2018-11-13",
        "dateShipped": "2018-11-14",
        "email": "marystoll@gmail.com",
        "paymentType": "not selected yet",
        "amountDue": 12.99,
        "paid": false
    }
]